id,name,model_id:id,group_id:id,perm_read,perm_write,perm_create,perm_unlink
access_sie_professional_attitude_group_sie_professional_attitude,access_sie_professional_attitude,model_sie_professional_attitude,group_sie_professional_attitude,1,1,1,1
access_sie_course_group_sie_professional_attitude,access_sie_course,model_sie_course,group_sie_professional_attitude,1,0,0,0
access_sie_course_parameter_group_sie_professional_attitude,access_sie_course_parameter,model_sie_course_parameter,group_sie_professional_attitude,1,0,0,0
access_sie_enrollment_group_sie_professional_attitude,access_sie_enrollment,model_sie_enrollment,group_sie_professional_attitude,1,0,0,0
access_sie_student_group_sie_professional_attitude,access_sie_student,model_sie_student,group_sie_professional_attitude,1,0,0,0
access_sie_professional_attitude_student_group_sie_professional_attitude,access_sie_professional_attitude_student,model_sie_professional_attitude_student,group_sie_professional_attitude,1,1,1,1
access_sie_faculty_group_sie_professional_attitude,access_sie_faculty,model_sie_faculty,group_sie_professional_attitude,1,0,0,0
access_sie_course_parameter_group_sie_professional_attitude,access_sie_course_parameter,model_sie_course_parameter,group_sie_professional_attitude,1,0,0,0
access_sie_promotion_course_group_sie_professional_attitude,access_sie_promotion_course,model_sie_promotion_course,group_sie_professional_attitude,1,0,0,0
access_sie_subject_group_sie_professional_attitude,access_sie_subject,model_sie_subject,group_sie_professional_attitude,1,0,0,0
access_sie_matrix_group_sie_professional_attitude,access_sie_matrix,model_sie_matrix,group_sie_professional_attitude,1,0,0,0
access_sie_matrix_parameter_group_sie_professional_attitude,access_sie_matrix_parameter,model_sie_matrix_parameter,group_sie_professional_attitude,1,0,0,0
access_sie_param_name_group_sie_professional_attitude,access_sie_param_name,model_sie_param_name,group_sie_professional_attitude,1,0,0,0
access_sie_subject_course_group_sie_professional_attitude,access_sie_subject_course,model_sie_subject_course,group_sie_professional_attitude,1,0,0,0
access_sie_course_professional_attitude_group_sie_professional_attitude,access_sie_course_professional_attitude,model_sie_course_professional_attitude,group_sie_professional_attitude,1,0,0,0


access_sie_score_group_sie_teacher,access_sie_score,model_sie_score,group_sie_teacher,1,1,1,1
access_sie_course_group_sie_teacher,access_sie_course,model_sie_course,group_sie_teacher,1,0,0,0
access_sie_enrollment_group_sie_teacher,access_sie_enrollment,model_sie_enrollment,group_sie_teacher,1,0,0,0
access_sie_subject_group_sie_teacher,access_sie_subject,model_sie_subject,group_sie_teacher,1,0,0,0
access_sie_faculty_group_sie_teacher,access_sie_faculty,model_sie_faculty,group_sie_teacher,1,0,0,0
access_sie_course_parameter_group_sie_teacher,access_sie_course_parameter,model_sie_course_parameter,group_sie_teacher,1,0,0,0
access_sie_course_parameter_name_group_sie_teacher,access_sie_course_parameter_name,model_sie_course_parameter_name,group_sie_teacher,1,0,0,0
access_sie_student_group_sie_teacher,access_sie_student,model_sie_student,group_sie_teacher,1,0,0,0
access_sie_score_student_group_sie_teacher,access_sie_score_student,model_sie_score_student,group_sie_teacher,1,1,1,1
access_sie_promotion_course_group_sie_teacher,access_sie_promotion_course,model_sie_promotion_course,group_sie_teacher,1,0,0,0
access_sie_nato_group_sie_teacher,access_sie_nato,model_sie_nato,group_sie_teacher,1,0,0,0
access_sie_subject_unit_group_sie_teacher,access_sie_subject_unit,model_sie_subject_unit,group_sie_teacher,1,0,0,0
access_sie_matrix_group_sie_teacher,access_sie_matrix,model_sie_matrix,group_sie_teacher,1,0,0,0
access_sie_matrix_parameter_group_sie_teacher,access_sie_matrix_parameter,model_sie_matrix_parameter,group_sie_teacher,1,0,0,0
access_sie_param_name_group_sie_teacher,access_sie_param_name,model_sie_param_name,group_sie_teacher,1,0,0,0
access_sie_subject_course_group_sie_teacher,access_sie_subject_course,model_sie_subject_course,group_sie_teacher,1,0,0,0

access_sie_professional_attitude_group_sie_stats,access_sie_professional_attitude,model_sie_professional_attitude,group_sie_stats,1,1,1,1
access_sie_course_group_sie_stats,access_sie_course,model_sie_course,group_sie_stats,1,0,0,0
access_sie_course_parameter_group_sie_stats,access_sie_course_parameter,model_sie_course_parameter,group_sie_stats,1,0,0,0
access_sie_enrollment_group_sie_stats,access_sie_enrollment,model_sie_enrollment,group_sie_stats,1,0,0,0
access_sie_student_group_sie_stats,access_sie_student,model_sie_student,group_sie_stats,1,0,0,0
access_sie_professional_attitude_student_group_sie_stats,access_sie_professional_attitude_student,model_sie_professional_attitude_student,group_sie_stats,1,1,1,1
access_sie_faculty_group_sie_stats,access_sie_faculty,model_sie_faculty,group_sie_stats,1,0,0,0
access_sie_course_parameter_group_sie_stats,access_sie_course_parameter,model_sie_course_parameter,group_sie_stats,1,0,0,0
access_sie_promotion_course_group_sie_stats,access_sie_promotion_course,model_sie_promotion_course,group_sie_stats,1,0,0,0
access_sie_subject_group_sie_stats,access_sie_subject,model_sie_subject,group_sie_stats,1,0,0,0
access_sie_matrix_group_sie_stats,access_sie_matrix,model_sie_matrix,group_sie_stats,1,0,0,0
access_sie_matrix_parameter_group_sie_stats,access_sie_matrix_parameter,model_sie_matrix_parameter,group_sie_stats,1,0,0,0
access_sie_param_name_group_sie_stats,access_sie_param_name,model_sie_param_name,group_sie_stats,1,0,0,0
access_sie_subject_course_group_sie_stats,access_sie_subject_course,model_sie_subject_course,group_sie_stats,1,0,0,0
access_sie_course_professional_attitude_group_sie_stats,access_sie_course_professional_attitude,model_sie_course_professional_attitude,group_sie_stats,1,0,0,0

access_sie_integrator_product_group_sie_stats,access_sie_integrator_product,model_sie_integrator_product,group_sie_stats,1,1,1,1
access_sie_subject_group_sie_stats,access_sie_subject,model_sie_subject,group_sie_stats,1,0,0,0
access_sie_course_parameter_name_group_sie_stats,access_sie_course_parameter_name,model_sie_course_parameter_name,group_sie_stats,1,0,0,0
access_sie_integrator_product_student_group_sie_stats,access_sie_integrator_product_student,model_sie_integrator_product_student,group_sie_stats,1,1,1,1
access_sie_war_games_enrollment_group_sie_stats,access_sie_war_games_enrollment,model_sie_war_games_enrollment,group_sie_stats,1,0,0,0
access_sie_war_games_group_sie_stats,access_sie_war_games,model_sie_war_games,group_sie_stats,1,0,0,0
access_sie_war_games_enrollment_student_group_sie_stats,access_sie_war_games_enrollment_student,model_sie_war_games_enrollment_student,group_sie_stats,1,0,0,0


access_sie_productivity_group_sie_stats,access_sie_productivity,model_sie_productivity,group_sie_stats,1,1,1,1
access_sie_productivity_student_group_sie_stats,access_sie_productivity_student,model_sie_productivity_student,group_sie_stats,1,1,1,1
access_sie_register_work_group_sie_stats,access_sie_register_work,model_sie_register_work,group_sie_stats,1,0,0,0
access_sie_register_work_student_group_sie_stats,access_sie_register_work_student,model_sie_register_work_student,group_sie_stats,1,0,0,0
access_sie_register_work_enrollment_group_sie_stats,access_sie_register_work_enrollment,model_sie_register_work_enrollment,group_sie_stats,1,0,0,0